Short Term Business 2016-2019
…
##       role #variables
##    outcome          1
##  predictor          1
## 
## Training data contained 198 data points and no missing data.
## 
## Operations:
## 
## Sparse, unbalanced variable filter removed no terms [trained]
## Integer encoding for  [trained]
## Centering for Expendetures [trained]
## Scaling for Expendetures [trained]
## Dummy variables were *not* created since no columns were selected. [trained]

## # A tibble: 198 x 2
##    Expendetures  Revenues
##           <dbl>     <dbl>
##  1       -0.378  23152425
##  2       -0.377 182549458
##  3       -0.374 154441358
##  4       -0.378  12924930
##  5       -0.379   2133287
##  6       -0.378  55249933
##  7       -0.374 157340186
##  8       -0.378  27688754
##  9       -0.378  16402816
## 10       -0.378  37702976
## #  with 188 more rows
…
